{
  "body": {
    "devices": [
      {
        "_id": "70:ee:50:06:8c:ca",
        "date_setup": 1419449716,
        "last_setup": 1624969590,
        "type": "NAMain",
        "last_status_store": 1624978747,
        "firmware": 181,
        "last_upgrade": 1440163766,
        "wifi_status": 55,
        "behavior": 4096,
        "user_owner": [
          "5fbd75051cf651152f073ed0"
        ],
        "reachable": true,
        "alarm_config": {
          "default_alarm": [
            {
              "db_alarm_number": 0
            },
            {
              "db_alarm_number": 1
            },
            {
              "db_alarm_number": 2
            },
            {
              "db_alarm_number": 4
            },
            {
              "db_alarm_number": 5
            },
            {
              "db_alarm_number": 6
            },
            {
              "db_alarm_number": 7
            }
          ]
        },
        "co2_calibrating": false,
        "hardware_version": 251,
        "customer_id": "C00016",
        "data_type": [
          "Temperature",
          "CO2",
          "Humidity",
          "Noise",
          "Pressure"
        ],
        "place": {
          "altitude": 51,
          "city": "Rome",
          "street": "Via Garfagnana",
          "country": "IT",
          "timezone": "Europe/Rome",
          "location": [
            12.5190746,
            41.9116783
          ]
        },
        "public_ext_data": true,
        "air_quality_available": true,
        "home_id": "5fbd7605c399df5faa159f37",
        "home_name": "arezzo",
        "dashboard_data": {
          "time_utc": 1624978735,
          "Temperature": 26.2,
          "CO2": 1950,
          "Humidity": 39,
          "Noise": 42,
          "Pressure": 1012.8,
          "AbsolutePressure": 1006.7,
          "temp_trend": "stable"
        },
        "modules": [
          {
            "_id": "02:00:00:71:45:96",
            "type": "NAModule1",
            "last_setup": 1624971214,
            "data_type": [
              "Temperature",
              "Humidity"
            ],
            "pluvio_scale_auget_to_mm": 0.101,
            "battery_percent": 42,
            "battery_level": "low",
            "reachable": true,
            "firmware": 50,
            "last_message": 1624978745,
            "last_seen": 1624978707,
            "rf_status": 71,
            "battery_vp": 4962,
            "dashboard_data": {
              "time_utc": 1624978707,
              "Temperature": 32.3,
              "Humidity": 52,
              "temp_trend": "stable"
            }
          }
        ]
      }
    ],
    "user": {
      "mail": "valerio.coltre@gmail.com",
      "administrative": {
        "lang": "it",
        "reg_locale": "it-IT",
        "country": "IT",
        "unit": 0,
        "windunit": 0,
        "pressureunit": 0,
        "feel_like_algo": 0
      },
      "app_telemetry": false
    }
  },
  "status": "ok",
  "time_exec": 0.06372499465942383,
  "time_server": 1624979283
}
